{
  "project_info": {
    "project_number": "806128921689",
    "firebase_url": "https://androidfirestoreproject-69ca3.firebaseio.com",
    "project_id": "androidfirestoreproject-69ca3",
    "storage_bucket": "androidfirestoreproject-69ca3.appspot.com"
  },
  "client": [
    {
      "client_info": {
        "mobilesdk_app_id": "1:806128921689:android:75cd1e2bfd34a6f64f1548",
        "android_client_info": {
          "package_name": "tn.polytechsousse.firebase_firestore_project"
        }
      },
      "oauth_client": [
        {
          "client_id": "806128921689-7nm0fv3sf9rp6d243m8vf3ev40gf6qnd.apps.googleusercontent.com",
          "client_type": 3
        }
      ],
      "api_key": [
        {
          "current_key": "AIzaSyCgCRbyJrgUHVr1UYnE9euzQuymX65vgig"
        }
      ],
      "services": {
        "appinvite_service": {
          "other_platform_oauth_client": [
            {
              "client_id": "806128921689-7nm0fv3sf9rp6d243m8vf3ev40gf6qnd.apps.googleusercontent.com",
              "client_type": 3
            }
          ]
        }
      }
    }
  ],
  "configuration_version": "1"
}